{
    "id": 1,
    "name": "Example product",
    "customisation": {

        "properties": [
            {
                "name": "colour",
                "default_value": null,
                "constraints": [
                    {"type": "required"}
                ],
                "form": {
                    "type": "choice",
                    "options": {
                        "label": "Colour",
                        "choices": [
                            {"label": "Black", "value": null},
                            {"label": "Cream", "value": "cream"},
                            {"label": "Mint Green", "value": "mint_green"},
                            {"label": "Parchment", "value": "parchment"}
                        ]
                    }
                }
            },
            {
                "name": "wire_colour",
                "default_value": null,
                "constraints": [],
                "form": {
                    "type": "choice",
                    "options": {
                        "label": "Wire Colour",
                        "choices": [
                            {"label": "Black", "value": null},
                            {"label": "Brown", "value": "brown"},
                            {"label": "Copper", "value": "copper"},
                            {"label": "Red", "value": "red"}
                        ]
                    }
                }
            },
            {
                "name": "gold_bolts",
                "default_value": false,
                "constraints": [],
                "form": {
                    "type": "checkbox",
                    "options": {
                        "label": "Gold Bolts"
                    }
                }
            }
        ],
        "pricing": {
            "rules": [
                {
                    "description": "Pickup",
                    "condition": "true",
                    "value_expression": "120.00"
                },
                {
                    "description": "Custom Colour",
                    "condition": "options.colour !== null && options.colour !== 'mint_green'",
                    "value_expression": "5.00"
                },
                {
                    "description": "Custom Wire Colour",
                    "condition": "options.wire_colour !== null",
                    "value_expression": "2.00"
                },
                {
                    "description": "Custom Colour (Mint Green)",
                    "condition": "options.colour === 'mint_green'",
                    "value_expression": "10.00"
                },
                {
                    "description": "Gold Bolts",
                    "condition": "options.gold_bolts",
                    "value_expression": "5.00"
                }
            ]
        },

        "preview": {
            "layers": [
                {
                    "image": {
                        "ref": "base",
                        "offset": [0,0],
                        "size": [823, 550]
                    },
                    "condition": "true"
                },
                {
                    "image": {
                        "ref": "wires/brown",
                        "offset": [0,0],
                        "size": [823, 550]
                    },
                    "condition": "options.wire_colour === 'brown'"
                },
                {
                    "image": {
                        "ref": "wires/copper",
                        "offset": [0,0],
                        "size": [823, 550]
                    },
                    "condition": "options.wire_colour === 'copper'"
                },
                {
                    "image": {
                        "ref": "wires/red",
                        "offset": [0,0],
                        "size": [823, 550]
                    },
                    "condition": "options.wire_colour === 'red'"
                },
                {
                    "image": {
                        "ref": "colours/cream",
                        "offset": [0,0],
                        "size": [823, 550]
                    },
                    "condition": "options.colour === 'cream'"
                },
                {
                    "image": {
                        "ref": "colours/mint_green",
                        "offset": [0,0],
                        "size": [823, 550]
                    },
                    "condition": "options.colour === 'mint_green'"
                },
                {
                    "image": {
                        "ref": "colours/parchment",
                        "offset": [0,0],
                        "size": [823, 550]
                    },
                    "condition": "options.colour === 'parchment'"
                },
                {
                    "image": {
                        "ref": "gold_bolts",
                        "offset": [-1, 60],
                        "size": [823, 550]
                    },
                    "condition": "options.gold_bolts === true"
                }
            ]
        }
    }
}